%YAML 1.1
%TAG !u! tag:unity3d.com,2011:
--- !u!78 &1
TagManager:
  serializedVersion: 2
  tags:
  - PowerUp
  - Heavy
  - Push
  - Jugador
  - Ancla
  layers:
  - Default
  - TransparentFX
  - Ignore Raycast
  - Hookeable
  - Water
  - UI
  - Floor
  - Jugador
  - Volumen
  - 
  - 
  - 
  - 
  - 
  - 
  - 
  - 
  - 
  - 
  - 
  - 
  - 
  - 
  - 
  - 
  - 
  - 
  - 
  - 
  - 
  - 
  - 
  m_SortingLayers:
  - name: Default
    uniqueID: 0
    locked: 0
